{

	"$schema":  "http://json-schema.org/draft-04/schema",

	"title": "Application settings",
	"description": "Test Technology mobile branch application settings",
	"type": "object",

	"properties": {

		"device-id": {
			"type": "string",
			"description": "A UUIDv4 unique identifier representing this device.",
			"pattern": "^[a-fA-F0-9]{8}-[a-fA-F0-9]{4}-[a-fA-F0-9]{4}-[a-fA-F0-9]{4}-[a-fA-F0-9]{12}$",
			"required": true
		},
		"server": {

			"type": "object",
			"required": true,
			"properties": {

				"date-registered": {
					"type": "integer",
					"description": "The date, as a timestamp, in which this device was last granted a device-server key.",
					"minimum": 0,
					"exclusiveMinimum": true,
					"required": false
				},
				"hostname": {
					"type": "string",
					"description": "The server hostname or address, as specified by the service provider.",
					"required": true
				},
				"port": {
					"type": "integer",
					"description": "The server port from which connections are being processed, by default port 80.",
					"minimum": 0,
					"exclusiveMinimum": true,
					"default": 80,
					"required": false
				},
				"use-https": {
					"type": "boolean",
					"description": "Determines whether the connection is established over HTTPS or HTTP.",
					"default": false,
					"required": true
				},
				"username": {
					"type": "string",
					"description": "The server authentication user's username.",
					"minLength": 2,
					"maxLength": 64,
					"required": true
				},
				"passwd": {
					"type": "string",
					"description": "The SHA1 representation of the server authentication user's password.",
					"pattern": "^[0-9a-f]{6,40}$",
					"required": true
				},
				"server-key": {
					"type": "string",
					"description": "The SHA1 representation of the device-server key.",
					"pattern": "^[0-9a-f]{6,40}$",
					"required": false
				}

			}

		},
		"local": {

			"type": "object",
			"required": true,
			"properties": {

				"name": {
					"type": "string",
					"description": "The local database denomination, according to the platform's specification.",
					"minLength": 2,
					"maxLength": 64,
					"required": true
				},
				"version": {
					"type": "integer",
					"description": "The version of the local database definition, according to the platform's specification.",
					"minimum": 1,
					"required": true
				}

			}

		}

	}

}
